^E:\WORK\PROGRAMMING PROJECTS\OPENGL\OPENGLTEST2\OPENGLTEST2\APPLICATIONMAIN.CPP
/c /ZI /nologo /W3 /WX- /Od /Oy- /Gm /EHsc /RTC1 /MDd /GS /fp:precise /Zc:wchar_t /Zc:forScope /Fo"Debug\\" /Fd"Debug\vc100.pdb" /Gd /TP /analyze- /errorReport:prompt E:\WORK\PROGRAMMING PROJECTS\OPENGL\OPENGLTEST2\OPENGLTEST2\APPLICATIONMAIN.CPP
^E:\WORK\PROGRAMMING PROJECTS\OPENGL\OPENGLTEST2\OPENGLTEST2\BASEENTITY.CPP
/c /ZI /nologo /W3 /WX- /Od /Oy- /Gm /EHsc /RTC1 /MDd /GS /fp:precise /Zc:wchar_t /Zc:forScope /Fo"Debug\\" /Fd"Debug\vc100.pdb" /Gd /TP /analyze- /errorReport:prompt E:\WORK\PROGRAMMING PROJECTS\OPENGL\OPENGLTEST2\OPENGLTEST2\BASEENTITY.CPP
^E:\WORK\PROGRAMMING PROJECTS\OPENGL\OPENGLTEST2\OPENGLTEST2\ERRORMANAGER.CPP
/c /ZI /nologo /W3 /WX- /Od /Oy- /Gm /EHsc /RTC1 /MDd /GS /fp:precise /Zc:wchar_t /Zc:forScope /Fo"Debug\\" /Fd"Debug\vc100.pdb" /Gd /TP /analyze- /errorReport:prompt E:\WORK\PROGRAMMING PROJECTS\OPENGL\OPENGLTEST2\OPENGLTEST2\ERRORMANAGER.CPP
^E:\WORK\PROGRAMMING PROJECTS\OPENGL\OPENGLTEST2\OPENGLTEST2\GLCORE.CPP
/c /ZI /nologo /W3 /WX- /Od /Oy- /Gm /EHsc /RTC1 /MDd /GS /fp:precise /Zc:wchar_t /Zc:forScope /Fo"Debug\\" /Fd"Debug\vc100.pdb" /Gd /TP /analyze- /errorReport:prompt E:\WORK\PROGRAMMING PROJECTS\OPENGL\OPENGLTEST2\OPENGLTEST2\GLCORE.CPP
^E:\WORK\PROGRAMMING PROJECTS\OPENGL\OPENGLTEST2\OPENGLTEST2\MAIN.CPP
/c /ZI /nologo /W3 /WX- /Od /Oy- /Gm /EHsc /RTC1 /MDd /GS /fp:precise /Zc:wchar_t /Zc:forScope /Fo"Debug\\" /Fd"Debug\vc100.pdb" /Gd /TP /analyze- /errorReport:prompt E:\WORK\PROGRAMMING PROJECTS\OPENGL\OPENGLTEST2\OPENGLTEST2\MAIN.CPP
^E:\WORK\PROGRAMMING PROJECTS\OPENGL\OPENGLTEST2\OPENGLTEST2\MLCAMERA.CPP
/c /ZI /nologo /W3 /WX- /Od /Oy- /Gm /EHsc /RTC1 /MDd /GS /fp:precise /Zc:wchar_t /Zc:forScope /Fo"Debug\\" /Fd"Debug\vc100.pdb" /Gd /TP /analyze- /errorReport:prompt E:\WORK\PROGRAMMING PROJECTS\OPENGL\OPENGLTEST2\OPENGLTEST2\MLCAMERA.CPP
^E:\WORK\PROGRAMMING PROJECTS\OPENGL\OPENGLTEST2\OPENGLTEST2\MLSPRITE.CPP
/c /ZI /nologo /W3 /WX- /Od /Oy- /Gm /EHsc /RTC1 /MDd /GS /fp:precise /Zc:wchar_t /Zc:forScope /Fo"Debug\\" /Fd"Debug\vc100.pdb" /Gd /TP /analyze- /errorReport:prompt E:\WORK\PROGRAMMING PROJECTS\OPENGL\OPENGLTEST2\OPENGLTEST2\MLSPRITE.CPP
^E:\WORK\PROGRAMMING PROJECTS\OPENGL\OPENGLTEST2\OPENGLTEST2\WINDOWSHANDLER.CPP
/c /ZI /nologo /W3 /WX- /Od /Oy- /Gm /EHsc /RTC1 /MDd /GS /fp:precise /Zc:wchar_t /Zc:forScope /Fo"Debug\\" /Fd"Debug\vc100.pdb" /Gd /TP /analyze- /errorReport:prompt E:\WORK\PROGRAMMING PROJECTS\OPENGL\OPENGLTEST2\OPENGLTEST2\WINDOWSHANDLER.CPP
^E:\WORK\PROGRAMMING PROJECTS\OPENGL\OPENGLTEST2\OPENGLTEST2\ERRORHANDLER.CPP
/c /ZI /nologo /W3 /WX- /Od /Oy- /Gm /EHsc /RTC1 /MDd /GS /fp:precise /Zc:wchar_t /Zc:forScope /Fo"Debug\\" /Fd"Debug\vc100.pdb" /Gd /TP /analyze- /errorReport:prompt E:\WORK\PROGRAMMING PROJECTS\OPENGL\OPENGLTEST2\OPENGLTEST2\ERRORHANDLER.CPP
^E:\WORK\PROGRAMMING PROJECTS\OPENGL\OPENGLTEST2\OPENGLTEST2\MLSHADER.CPP
/c /ZI /nologo /W3 /WX- /Od /Oy- /Gm /EHsc /RTC1 /MDd /GS /fp:precise /Zc:wchar_t /Zc:forScope /Fo"Debug\\" /Fd"Debug\vc100.pdb" /Gd /TP /analyze- /errorReport:prompt E:\WORK\PROGRAMMING PROJECTS\OPENGL\OPENGLTEST2\OPENGLTEST2\MLSHADER.CPP
^E:\WORK\PROGRAMMING PROJECTS\OPENGL\OPENGLTEST2\OPENGLTEST2\BASICOBJECT.CPP
/c /ZI /nologo /W3 /WX- /Od /Oy- /Gm /EHsc /RTC1 /MDd /GS /fp:precise /Zc:wchar_t /Zc:forScope /Fo"Debug\\" /Fd"Debug\vc100.pdb" /Gd /TP /analyze- /errorReport:prompt E:\WORK\PROGRAMMING PROJECTS\OPENGL\OPENGLTEST2\OPENGLTEST2\BASICOBJECT.CPP
^E:\WORK\PROGRAMMING PROJECTS\OPENGL\OPENGLTEST2\OPENGLTEST2\MLCOREGL.CPP
/c /ZI /nologo /W3 /WX- /Od /Oy- /Gm /EHsc /RTC1 /MDd /GS /fp:precise /Zc:wchar_t /Zc:forScope /Fo"Debug\\" /Fd"Debug\vc100.pdb" /Gd /TP /analyze- /errorReport:prompt E:\WORK\PROGRAMMING PROJECTS\OPENGL\OPENGLTEST2\OPENGLTEST2\MLCOREGL.CPP
^E:\WORK\PROGRAMMING PROJECTS\OPENGL\OPENGLTEST2\OPENGLTEST2\MLSPRITEBATCH.CPP
/c /ZI /nologo /W3 /WX- /Od /Oy- /Gm /EHsc /RTC1 /MDd /GS /fp:precise /Zc:wchar_t /Zc:forScope /Fo"Debug\\" /Fd"Debug\vc100.pdb" /Gd /TP /analyze- /errorReport:prompt E:\WORK\PROGRAMMING PROJECTS\OPENGL\OPENGLTEST2\OPENGLTEST2\MLSPRITEBATCH.CPP
^E:\WORK\PROGRAMMING PROJECTS\OPENGL\OPENGLTEST2\OPENGLTEST2\MLTEXTURELOADER.CPP
/c /ZI /nologo /W3 /WX- /Od /Oy- /Gm /EHsc /RTC1 /MDd /GS /fp:precise /Zc:wchar_t /Zc:forScope /Fo"Debug\\" /Fd"Debug\vc100.pdb" /Gd /TP /analyze- /errorReport:prompt E:\WORK\PROGRAMMING PROJECTS\OPENGL\OPENGLTEST2\OPENGLTEST2\MLTEXTURELOADER.CPP
^E:\WORK\PROGRAMMING PROJECTS\OPENGL\OPENGLTEST2\OPENGLTEST2\MLTEXTUREMANAGER.CPP
/c /ZI /nologo /W3 /WX- /Od /Oy- /Gm /EHsc /RTC1 /MDd /GS /fp:precise /Zc:wchar_t /Zc:forScope /Fo"Debug\\" /Fd"Debug\vc100.pdb" /Gd /TP /analyze- /errorReport:prompt E:\WORK\PROGRAMMING PROJECTS\OPENGL\OPENGLTEST2\OPENGLTEST2\MLTEXTUREMANAGER.CPP
^E:\WORK\GIT\GBA\MOONLIGHT\OPENGLTEST2\APPLICATIONMAIN.CPP
/c /ZI /nologo /W3 /WX- /Od /Oy- /Gm /EHsc /RTC1 /MDd /GS /fp:precise /Zc:wchar_t /Zc:forScope /Fo"Debug\\" /Fd"Debug\vc100.pdb" /Gd /TP /analyze- /errorReport:prompt E:\WORK\GIT\GBA\MOONLIGHT\OPENGLTEST2\APPLICATIONMAIN.CPP
^E:\WORK\GIT\GBA\MOONLIGHT\OPENGLTEST2\BASEENTITY.CPP
/c /ZI /nologo /W3 /WX- /Od /Oy- /Gm /EHsc /RTC1 /MDd /GS /fp:precise /Zc:wchar_t /Zc:forScope /Fo"Debug\\" /Fd"Debug\vc100.pdb" /Gd /TP /analyze- /errorReport:prompt E:\WORK\GIT\GBA\MOONLIGHT\OPENGLTEST2\BASEENTITY.CPP
^E:\WORK\GIT\GBA\MOONLIGHT\OPENGLTEST2\BASICOBJECT.CPP
/c /ZI /nologo /W3 /WX- /Od /Oy- /Gm /EHsc /RTC1 /MDd /GS /fp:precise /Zc:wchar_t /Zc:forScope /Fo"Debug\\" /Fd"Debug\vc100.pdb" /Gd /TP /analyze- /errorReport:prompt E:\WORK\GIT\GBA\MOONLIGHT\OPENGLTEST2\BASICOBJECT.CPP
^E:\WORK\GIT\GBA\MOONLIGHT\OPENGLTEST2\ERRORHANDLER.CPP
/c /ZI /nologo /W3 /WX- /Od /Oy- /Gm /EHsc /RTC1 /MDd /GS /fp:precise /Zc:wchar_t /Zc:forScope /Fo"Debug\\" /Fd"Debug\vc100.pdb" /Gd /TP /analyze- /errorReport:prompt E:\WORK\GIT\GBA\MOONLIGHT\OPENGLTEST2\ERRORHANDLER.CPP
^E:\WORK\GIT\GBA\MOONLIGHT\OPENGLTEST2\MLCOREGL.CPP
/c /ZI /nologo /W3 /WX- /Od /Oy- /Gm /EHsc /RTC1 /MDd /GS /fp:precise /Zc:wchar_t /Zc:forScope /Fo"Debug\\" /Fd"Debug\vc100.pdb" /Gd /TP /analyze- /errorReport:prompt E:\WORK\GIT\GBA\MOONLIGHT\OPENGLTEST2\MLCOREGL.CPP
^E:\WORK\GIT\GBA\MOONLIGHT\OPENGLTEST2\MAIN.CPP
/c /ZI /nologo /W3 /WX- /Od /Oy- /Gm /EHsc /RTC1 /MDd /GS /fp:precise /Zc:wchar_t /Zc:forScope /Fo"Debug\\" /Fd"Debug\vc100.pdb" /Gd /TP /analyze- /errorReport:prompt E:\WORK\GIT\GBA\MOONLIGHT\OPENGLTEST2\MAIN.CPP
^E:\WORK\GIT\GBA\MOONLIGHT\OPENGLTEST2\MLCAMERA.CPP
/c /ZI /nologo /W3 /WX- /Od /Oy- /Gm /EHsc /RTC1 /MDd /GS /fp:precise /Zc:wchar_t /Zc:forScope /Fo"Debug\\" /Fd"Debug\vc100.pdb" /Gd /TP /analyze- /errorReport:prompt E:\WORK\GIT\GBA\MOONLIGHT\OPENGLTEST2\MLCAMERA.CPP
^E:\WORK\GIT\GBA\MOONLIGHT\OPENGLTEST2\MLSHADER.CPP
/c /ZI /nologo /W3 /WX- /Od /Oy- /Gm /EHsc /RTC1 /MDd /GS /fp:precise /Zc:wchar_t /Zc:forScope /Fo"Debug\\" /Fd"Debug\vc100.pdb" /Gd /TP /analyze- /errorReport:prompt E:\WORK\GIT\GBA\MOONLIGHT\OPENGLTEST2\MLSHADER.CPP
^E:\WORK\GIT\GBA\MOONLIGHT\OPENGLTEST2\MLSPRITEBATCH.CPP
/c /ZI /nologo /W3 /WX- /Od /Oy- /Gm /EHsc /RTC1 /MDd /GS /fp:precise /Zc:wchar_t /Zc:forScope /Fo"Debug\\" /Fd"Debug\vc100.pdb" /Gd /TP /analyze- /errorReport:prompt E:\WORK\GIT\GBA\MOONLIGHT\OPENGLTEST2\MLSPRITEBATCH.CPP
^E:\WORK\GIT\GBA\MOONLIGHT\OPENGLTEST2\MLTEXTUREMANAGER.CPP
/c /ZI /nologo /W3 /WX- /Od /Oy- /Gm /EHsc /RTC1 /MDd /GS /fp:precise /Zc:wchar_t /Zc:forScope /Fo"Debug\\" /Fd"Debug\vc100.pdb" /Gd /TP /analyze- /errorReport:prompt E:\WORK\GIT\GBA\MOONLIGHT\OPENGLTEST2\MLTEXTUREMANAGER.CPP
^E:\WORK\GIT\GBA\MOONLIGHT\OPENGLTEST2\WINDOWSHANDLER.CPP
/c /ZI /nologo /W3 /WX- /Od /Oy- /Gm /EHsc /RTC1 /MDd /GS /fp:precise /Zc:wchar_t /Zc:forScope /Fo"Debug\\" /Fd"Debug\vc100.pdb" /Gd /TP /analyze- /errorReport:prompt E:\WORK\GIT\GBA\MOONLIGHT\OPENGLTEST2\WINDOWSHANDLER.CPP
