^E:\WORK\GIT\GBA\MOONLIGHT\OPENGLTEST2\DEBUG\APPLICATIONMAIN.OBJ|E:\WORK\GIT\GBA\MOONLIGHT\OPENGLTEST2\DEBUG\BASEENTITY.OBJ|E:\WORK\GIT\GBA\MOONLIGHT\OPENGLTEST2\DEBUG\BASICOBJECT.OBJ|E:\WORK\GIT\GBA\MOONLIGHT\OPENGLTEST2\DEBUG\ERRORHANDLER.OBJ|E:\WORK\GIT\GBA\MOONLIGHT\OPENGLTEST2\DEBUG\MAIN.OBJ|E:\WORK\GIT\GBA\MOONLIGHT\OPENGLTEST2\DEBUG\MLCAMERA.OBJ|E:\WORK\GIT\GBA\MOONLIGHT\OPENGLTEST2\DEBUG\MLCOREGL.OBJ|E:\WORK\GIT\GBA\MOONLIGHT\OPENGLTEST2\DEBUG\MLSHADER.OBJ|E:\WORK\GIT\GBA\MOONLIGHT\OPENGLTEST2\DEBUG\MLSPRITEBATCH.OBJ|E:\WORK\GIT\GBA\MOONLIGHT\OPENGLTEST2\DEBUG\MLTEXTUREMANAGER.OBJ|E:\WORK\GIT\GBA\MOONLIGHT\OPENGLTEST2\DEBUG\WINDOWSHANDLER.OBJ
C:\PROGRAM FILES (X86)\MICROSOFT SDKS\WINDOWS\V7.0A\LIB\OPENGL32.LIB
C:\PROGRAM FILES (X86)\MICROSOFT SDKS\WINDOWS\V7.0A\LIB\GLU32.LIB
C:\PROGRAM FILES (X86)\MICROSOFT SDKS\WINDOWS\V7.0A\LIB\GLEW32.LIB
E:\WORK\GIT\GBA\MOONLIGHT\LIB\FREEIMAGE.LIB
C:\PROGRAM FILES (X86)\MICROSOFT SDKS\WINDOWS\V7.0A\LIB\WINMM.LIB
C:\PROGRAM FILES (X86)\MICROSOFT SDKS\WINDOWS\V7.0A\LIB\KERNEL32.LIB
C:\PROGRAM FILES (X86)\MICROSOFT SDKS\WINDOWS\V7.0A\LIB\USER32.LIB
C:\PROGRAM FILES (X86)\MICROSOFT SDKS\WINDOWS\V7.0A\LIB\GDI32.LIB
C:\PROGRAM FILES (X86)\MICROSOFT SDKS\WINDOWS\V7.0A\LIB\WINSPOOL.LIB
C:\PROGRAM FILES (X86)\MICROSOFT SDKS\WINDOWS\V7.0A\LIB\COMDLG32.LIB
C:\PROGRAM FILES (X86)\MICROSOFT SDKS\WINDOWS\V7.0A\LIB\ADVAPI32.LIB
C:\PROGRAM FILES (X86)\MICROSOFT SDKS\WINDOWS\V7.0A\LIB\SHELL32.LIB
C:\PROGRAM FILES (X86)\MICROSOFT SDKS\WINDOWS\V7.0A\LIB\OLE32.LIB
C:\PROGRAM FILES (X86)\MICROSOFT SDKS\WINDOWS\V7.0A\LIB\OLEAUT32.LIB
C:\PROGRAM FILES (X86)\MICROSOFT SDKS\WINDOWS\V7.0A\LIB\UUID.LIB
C:\PROGRAM FILES (X86)\MICROSOFT SDKS\WINDOWS\V7.0A\LIB\ODBC32.LIB
C:\PROGRAM FILES (X86)\MICROSOFT SDKS\WINDOWS\V7.0A\LIB\ODBCCP32.LIB
E:\WORK\GIT\GBA\MOONLIGHT\OPENGLTEST2\DEBUG\APPLICATIONMAIN.OBJ
E:\WORK\GIT\GBA\MOONLIGHT\OPENGLTEST2\DEBUG\BASEENTITY.OBJ
E:\WORK\GIT\GBA\MOONLIGHT\OPENGLTEST2\DEBUG\BASICOBJECT.OBJ
E:\WORK\GIT\GBA\MOONLIGHT\OPENGLTEST2\DEBUG\ERRORHANDLER.OBJ
E:\WORK\GIT\GBA\MOONLIGHT\OPENGLTEST2\DEBUG\MLCOREGL.OBJ
E:\WORK\GIT\GBA\MOONLIGHT\OPENGLTEST2\DEBUG\MAIN.OBJ
E:\WORK\GIT\GBA\MOONLIGHT\OPENGLTEST2\DEBUG\MLCAMERA.OBJ
E:\WORK\GIT\GBA\MOONLIGHT\OPENGLTEST2\DEBUG\MLSHADER.OBJ
E:\WORK\GIT\GBA\MOONLIGHT\OPENGLTEST2\DEBUG\MLSPRITEBATCH.OBJ
E:\WORK\GIT\GBA\MOONLIGHT\OPENGLTEST2\DEBUG\MLTEXTUREMANAGER.OBJ
E:\WORK\GIT\GBA\MOONLIGHT\OPENGLTEST2\DEBUG\WINDOWSHANDLER.OBJ
C:\WINDOWS\GLOBALIZATION\SORTING\SORTDEFAULT.NLS
G:\PROGRAM FILES (X86)\MICROSOFT VISUAL STUDIO 10.0\VC\BIN\1033\LINKUI.DLL
G:\PROGRAM FILES (X86)\MICROSOFT VISUAL STUDIO 10.0\VC\LIB\MSVCPRTD.LIB
G:\PROGRAM FILES (X86)\MICROSOFT VISUAL STUDIO 10.0\VC\LIB\MSVCRTD.LIB
G:\PROGRAM FILES (X86)\MICROSOFT VISUAL STUDIO 10.0\VC\LIB\OLDNAMES.LIB
C:\WINDOWS\SYSTEM32\TZRES.DLL
^E:\WORK\PROGRAMMING PROJECTS\OPENGL\OPENGLTEST2\OPENGLTEST2\DEBUG\APPLICATIONMAIN.OBJ|E:\WORK\PROGRAMMING PROJECTS\OPENGL\OPENGLTEST2\OPENGLTEST2\DEBUG\BASEENTITY.OBJ|E:\WORK\PROGRAMMING PROJECTS\OPENGL\OPENGLTEST2\OPENGLTEST2\DEBUG\BASICOBJECT.OBJ|E:\WORK\PROGRAMMING PROJECTS\OPENGL\OPENGLTEST2\OPENGLTEST2\DEBUG\ERRORHANDLER.OBJ|E:\WORK\PROGRAMMING PROJECTS\OPENGL\OPENGLTEST2\OPENGLTEST2\DEBUG\MAIN.OBJ|E:\WORK\PROGRAMMING PROJECTS\OPENGL\OPENGLTEST2\OPENGLTEST2\DEBUG\MLCAMERA.OBJ|E:\WORK\PROGRAMMING PROJECTS\OPENGL\OPENGLTEST2\OPENGLTEST2\DEBUG\MLCOREGL.OBJ|E:\WORK\PROGRAMMING PROJECTS\OPENGL\OPENGLTEST2\OPENGLTEST2\DEBUG\MLSHADER.OBJ|E:\WORK\PROGRAMMING PROJECTS\OPENGL\OPENGLTEST2\OPENGLTEST2\DEBUG\MLSPRITEBATCH.OBJ|E:\WORK\PROGRAMMING PROJECTS\OPENGL\OPENGLTEST2\OPENGLTEST2\DEBUG\MLTEXTUREMANAGER.OBJ|E:\WORK\PROGRAMMING PROJECTS\OPENGL\OPENGLTEST2\OPENGLTEST2\DEBUG\WINDOWSHANDLER.OBJ
C:\PROGRAM FILES (X86)\MICROSOFT SDKS\WINDOWS\V7.0A\LIB\OPENGL32.LIB
C:\PROGRAM FILES (X86)\MICROSOFT SDKS\WINDOWS\V7.0A\LIB\GLU32.LIB
C:\PROGRAM FILES (X86)\MICROSOFT SDKS\WINDOWS\V7.0A\LIB\GLEW32.LIB
E:\WORK\GIT\GBA\MOONLIGHT\LIB\FREEIMAGE.LIB
C:\PROGRAM FILES (X86)\MICROSOFT SDKS\WINDOWS\V7.0A\LIB\WINMM.LIB
E:\WORK\PROGRAMMING PROJECTS\OPENGL\OPENGLTEST2\LIB\MLMATH.LIB
C:\PROGRAM FILES (X86)\MICROSOFT SDKS\WINDOWS\V7.0A\LIB\KERNEL32.LIB
C:\PROGRAM FILES (X86)\MICROSOFT SDKS\WINDOWS\V7.0A\LIB\USER32.LIB
C:\PROGRAM FILES (X86)\MICROSOFT SDKS\WINDOWS\V7.0A\LIB\GDI32.LIB
C:\PROGRAM FILES (X86)\MICROSOFT SDKS\WINDOWS\V7.0A\LIB\WINSPOOL.LIB
C:\PROGRAM FILES (X86)\MICROSOFT SDKS\WINDOWS\V7.0A\LIB\COMDLG32.LIB
C:\PROGRAM FILES (X86)\MICROSOFT SDKS\WINDOWS\V7.0A\LIB\ADVAPI32.LIB
C:\PROGRAM FILES (X86)\MICROSOFT SDKS\WINDOWS\V7.0A\LIB\SHELL32.LIB
C:\PROGRAM FILES (X86)\MICROSOFT SDKS\WINDOWS\V7.0A\LIB\OLE32.LIB
C:\PROGRAM FILES (X86)\MICROSOFT SDKS\WINDOWS\V7.0A\LIB\OLEAUT32.LIB
C:\PROGRAM FILES (X86)\MICROSOFT SDKS\WINDOWS\V7.0A\LIB\UUID.LIB
C:\PROGRAM FILES (X86)\MICROSOFT SDKS\WINDOWS\V7.0A\LIB\ODBC32.LIB
C:\PROGRAM FILES (X86)\MICROSOFT SDKS\WINDOWS\V7.0A\LIB\ODBCCP32.LIB
E:\WORK\PROGRAMMING PROJECTS\OPENGL\OPENGLTEST2\OPENGLTEST2\DEBUG\APPLICATIONMAIN.OBJ
E:\WORK\PROGRAMMING PROJECTS\OPENGL\OPENGLTEST2\OPENGLTEST2\DEBUG\BASEENTITY.OBJ
E:\WORK\PROGRAMMING PROJECTS\OPENGL\OPENGLTEST2\OPENGLTEST2\DEBUG\BASICOBJECT.OBJ
E:\WORK\PROGRAMMING PROJECTS\OPENGL\OPENGLTEST2\OPENGLTEST2\DEBUG\ERRORHANDLER.OBJ
E:\WORK\PROGRAMMING PROJECTS\OPENGL\OPENGLTEST2\OPENGLTEST2\DEBUG\MLCOREGL.OBJ
E:\WORK\PROGRAMMING PROJECTS\OPENGL\OPENGLTEST2\OPENGLTEST2\DEBUG\MAIN.OBJ
E:\WORK\PROGRAMMING PROJECTS\OPENGL\OPENGLTEST2\OPENGLTEST2\DEBUG\MLCAMERA.OBJ
E:\WORK\PROGRAMMING PROJECTS\OPENGL\OPENGLTEST2\OPENGLTEST2\DEBUG\MLSHADER.OBJ
E:\WORK\PROGRAMMING PROJECTS\OPENGL\OPENGLTEST2\OPENGLTEST2\DEBUG\MLSPRITEBATCH.OBJ
E:\WORK\PROGRAMMING PROJECTS\OPENGL\OPENGLTEST2\OPENGLTEST2\DEBUG\MLTEXTUREMANAGER.OBJ
E:\WORK\PROGRAMMING PROJECTS\OPENGL\OPENGLTEST2\OPENGLTEST2\DEBUG\WINDOWSHANDLER.OBJ
C:\WINDOWS\GLOBALIZATION\SORTING\SORTDEFAULT.NLS
G:\PROGRAM FILES (X86)\MICROSOFT VISUAL STUDIO 10.0\VC\BIN\1033\LINKUI.DLL
G:\PROGRAM FILES (X86)\MICROSOFT VISUAL STUDIO 10.0\VC\LIB\MSVCPRTD.LIB
G:\PROGRAM FILES (X86)\MICROSOFT VISUAL STUDIO 10.0\VC\LIB\MSVCRTD.LIB
G:\PROGRAM FILES (X86)\MICROSOFT VISUAL STUDIO 10.0\VC\LIB\OLDNAMES.LIB
C:\WINDOWS\SYSTEM32\TZRES.DLL
